0 0 0 5
0 0 1 5
0 0 2 5
0 0 3 5
0 0 4 5
0 0 5 5
0 0 6 5
0 0 7 5
0 0 8 5
0 0 9 5
0 0 10 5
0 0 11 5
0 0 12 5
0 0 13 5
0 0 14 5
0 0 15 5
0 0 16 5
0 0 17 5
0 0 18 5
0 0 19 5
0 0 20 5
0 0 21 5
0 0 22 5
0 0 23 5
0 0 24 5
0 0 25 5
0 0 26 5
0 0 27 5
0 0 28 5
0 0 29 5
0 0 30 5
0 0 31 5
1 0 0 5
1 0 1 5
1 0 2 5
1 0 3 5
1 0 4 5
1 0 5 5
1 0 6 5
1 0 7 5
1 0 8 5
1 0 9 5
1 0 10 5
1 0 11 5
1 0 12 5
1 0 13 5
1 0 14 5
1 0 15 5
1 0 16 5
1 0 17 5
1 0 18 5
1 0 19 5
1 0 20 5
1 0 21 5
1 0 22 5
1 0 23 5
1 0 24 5
1 0 25 5
1 0 26 5
1 0 27 5
1 0 28 5
1 0 29 5
1 0 30 5
1 0 31 5
2 0 0 5
2 0 1 5
2 0 2 5
2 0 3 5
2 0 4 5
2 0 5 5
2 0 6 5
2 0 7 5
2 0 8 5
2 0 9 5
2 0 10 5
2 0 11 5
2 0 12 5
2 0 13 5
2 0 14 5
2 0 15 5
2 0 16 5
2 0 17 5
2 0 18 5
2 0 19 5
2 0 20 5
2 0 21 5
2 0 22 5
2 0 23 5
2 0 24 5
2 0 25 5
2 0 26 5
2 0 27 5
2 0 28 5
2 0 29 5
2 0 30 5
2 0 31 5
3 0 0 5
3 0 1 5
3 0 2 5
3 0 3 5
3 0 4 5
3 0 5 5
3 0 6 5
3 0 7 5
3 0 8 5
3 0 9 5
3 0 10 5
3 0 11 5
3 0 12 5
3 0 13 5
3 0 14 5
3 0 15 5
3 0 16 5
3 0 17 5
3 0 18 5
3 0 19 5
3 0 20 5
3 0 21 5
3 0 22 5
3 0 23 5
3 0 24 5
3 0 25 5
3 0 26 5
3 0 27 5
3 0 28 5
3 0 29 5
3 0 30 5
3 0 31 5
4 0 0 5
4 0 1 5
4 0 2 5
4 0 3 5
4 0 4 5
4 0 5 5
4 0 6 5
4 0 7 5
4 0 8 5
4 0 9 5
4 0 10 5
4 0 11 5
4 0 12 5
4 0 13 5
4 0 14 5
4 0 15 5
4 0 16 5
4 0 17 5
4 0 18 5
4 0 19 5
4 0 20 5
4 0 21 5
4 0 22 5
4 0 23 5
4 0 24 5
4 0 25 5
4 0 26 5
4 0 27 5
4 0 28 5
4 0 29 5
4 0 30 5
4 0 31 5
5 0 0 5
5 0 1 5
5 0 2 5
5 0 3 5
5 0 4 5
5 0 5 5
5 0 6 5
5 0 7 5
5 0 8 5
5 0 9 5
5 0 10 5
5 0 11 5
5 0 12 5
5 0 13 5
5 0 14 5
5 0 15 5
5 0 16 5
5 0 17 5
5 0 18 5
5 0 19 5
5 0 20 5
5 0 21 5
5 0 22 5
5 0 23 5
5 0 24 5
5 0 25 5
5 0 26 5
5 0 27 5
5 0 28 5
5 0 29 5
5 0 30 5
5 0 31 5
6 0 0 5
6 0 1 5
6 0 2 5
6 0 3 5
6 0 4 5
6 0 5 5
6 0 6 5
6 0 7 5
6 0 8 5
6 0 9 5
6 0 10 5
6 0 11 5
6 0 12 5
6 0 13 5
6 0 14 5
6 0 15 5
6 0 16 5
6 0 17 5
6 0 18 5
6 0 19 5
6 0 20 5
6 0 21 5
6 0 22 5
6 0 23 5
6 0 24 5
6 0 25 5
6 0 26 5
6 0 27 5
6 0 28 5
6 0 29 5
6 0 30 5
6 0 31 5
7 0 0 5
7 0 1 5
7 0 2 5
7 0 3 5
7 0 4 5
7 0 5 5
7 0 6 5
7 0 7 5
7 0 8 5
7 0 9 5
7 0 10 5
7 0 11 5
7 0 12 5
7 0 13 5
7 0 14 5
7 0 15 5
7 0 16 5
7 0 17 5
7 0 18 5
7 0 19 5
7 0 20 5
7 0 21 5
7 0 22 5
7 0 23 5
7 0 24 5
7 0 25 5
7 0 26 5
7 0 27 5
7 0 28 5
7 0 29 5
7 0 30 5
7 0 31 5
8 0 0 5
8 0 1 5
8 0 2 5
8 0 3 5
8 0 4 5
8 0 5 5
8 0 6 5
8 0 7 5
8 0 8 5
8 0 9 5
8 0 10 5
8 0 11 5
8 0 12 5
8 0 13 5
8 0 14 5
8 0 15 5
8 0 16 5
8 0 17 5
8 0 18 5
8 0 19 5
8 0 20 5
8 0 21 5
8 0 22 5
8 0 23 5
8 0 24 5
8 0 25 5
8 0 26 5
8 0 27 5
8 0 28 5
8 0 29 5
8 0 30 5
8 0 31 5
9 0 0 5
9 0 1 5
9 0 2 5
9 0 3 5
9 0 4 5
9 0 5 5
9 0 6 5
9 0 7 5
9 0 8 5
9 0 9 5
9 0 10 5
9 0 11 5
9 0 12 5
9 0 13 5
9 0 14 5
9 0 15 5
9 0 16 5
9 0 17 5
9 0 18 5
9 0 19 5
9 0 20 5
9 0 21 5
9 0 22 5
9 0 23 5
9 0 24 5
9 0 25 5
9 0 26 5
9 0 27 5
9 0 28 5
9 0 29 5
9 0 30 5
9 0 31 5
10 0 0 5
10 0 1 5
10 0 2 5
10 0 3 5
10 0 4 5
10 0 5 5
10 0 6 5
10 0 7 5
10 0 8 5
10 0 9 5
10 0 10 5
10 0 11 5
10 0 12 5
10 0 13 5
10 0 14 5
10 0 15 5
10 0 16 5
10 0 17 5
10 0 18 5
10 0 19 5
10 0 20 5
10 0 21 5
10 0 22 5
10 0 23 5
10 0 24 5
10 0 25 5
10 0 26 5
10 0 27 5
10 0 28 5
10 0 29 5
10 0 30 5
10 0 31 5
11 0 0 5
11 0 1 5
11 0 2 5
11 0 3 5
11 0 4 5
11 0 5 5
11 0 6 5
11 0 7 5
11 0 8 5
11 0 9 5
11 0 10 5
11 0 11 5
11 0 12 5
11 0 13 5
11 0 14 5
11 0 15 5
11 0 16 5
11 0 17 5
11 0 18 5
11 0 19 5
11 0 20 5
11 0 21 5
11 0 22 5
11 0 23 5
11 0 24 5
11 0 25 5
11 0 26 5
11 0 27 5
11 0 28 5
11 0 29 5
11 0 30 5
11 0 31 5
12 0 0 5
12 0 1 5
12 0 2 5
12 0 3 5
12 0 4 5
12 0 5 5
12 0 6 5
12 0 7 5
12 0 8 5
12 0 9 5
12 0 10 5
12 0 11 5
12 0 12 5
12 0 13 5
12 0 14 5
12 0 15 5
12 0 16 5
12 0 17 5
12 0 18 5
12 0 19 5
12 0 20 5
12 0 21 5
12 0 22 5
12 0 23 5
12 0 24 5
12 0 25 5
12 0 26 5
12 0 27 5
12 0 28 5
12 0 29 5
12 0 30 5
12 0 31 5
13 0 0 5
13 0 1 5
13 0 2 5
13 0 3 5
13 0 4 5
13 0 5 5
13 0 6 5
13 0 7 5
13 0 8 5
13 0 9 5
13 0 10 5
13 0 11 5
13 0 12 5
13 0 13 5
13 0 14 5
13 0 15 5
13 0 16 5
13 0 17 5
13 0 18 5
13 0 19 5
13 0 20 5
13 0 21 5
13 0 22 5
13 0 23 5
13 0 24 5
13 0 25 5
13 0 26 5
13 0 27 5
13 0 28 5
13 0 29 5
13 0 30 5
13 0 31 5
14 0 0 5
14 0 1 5
14 0 2 5
14 0 3 5
14 0 4 5
14 0 5 5
14 0 6 5
14 0 7 5
14 0 8 5
14 0 9 5
14 0 10 5
14 0 11 5
14 0 12 5
14 0 13 5
14 0 14 5
14 0 15 5
14 0 16 5
14 0 17 5
14 0 18 5
14 0 19 5
14 0 20 5
14 0 21 5
14 0 22 5
14 0 23 5
14 0 24 5
14 0 25 5
14 0 26 5
14 0 27 5
14 0 28 5
14 0 29 5
14 0 30 5
14 0 31 5
15 0 0 5
15 0 1 5
15 0 2 5
15 0 3 5
15 0 4 5
15 0 5 5
15 0 6 5
15 0 7 5
15 0 8 5
15 0 9 5
15 0 10 5
15 0 11 5
15 0 12 5
15 0 13 5
15 0 14 5
15 0 15 5
15 0 16 5
15 0 17 5
15 0 18 5
15 0 19 5
15 0 20 5
15 0 21 5
15 0 22 5
15 0 23 5
15 0 24 5
15 0 25 5
15 0 26 5
15 0 27 5
15 0 28 5
15 0 29 5
15 0 30 5
15 0 31 5
16 0 0 5
16 0 1 5
16 0 2 5
16 0 3 5
16 0 4 5
16 0 5 5
16 0 6 5
16 0 7 5
16 0 8 5
16 0 9 5
16 0 10 5
16 0 11 5
16 0 12 5
16 0 13 5
16 0 14 5
16 0 15 5
16 0 16 5
16 0 17 5
16 0 18 5
16 0 19 5
16 0 20 5
16 0 21 5
16 0 22 5
16 0 23 5
16 0 24 5
16 0 25 5
16 0 26 5
16 0 27 5
16 0 28 5
16 0 29 5
16 0 30 5
16 0 31 5
17 0 0 5
17 0 1 5
17 0 2 5
17 0 3 5
17 0 4 5
17 0 5 5
17 0 6 5
17 0 7 5
17 0 8 5
17 0 9 5
17 0 10 5
17 0 11 5
17 0 12 5
17 0 13 5
17 0 14 5
17 0 15 5
17 0 16 5
17 0 17 5
17 0 18 5
17 0 19 5
17 0 20 5
17 0 21 5
17 0 22 5
17 0 23 5
17 0 24 5
17 0 25 5
17 0 26 5
17 0 27 5
17 0 28 5
17 0 29 5
17 0 30 5
17 0 31 5
18 0 0 5
18 0 1 5
18 0 2 5
18 0 3 5
18 0 4 5
18 0 5 5
18 0 6 5
18 0 7 5
18 0 8 5
18 0 9 5
18 0 10 5
18 0 11 5
18 0 12 5
18 0 13 5
18 0 14 5
18 0 15 5
18 0 16 5
18 0 17 5
18 0 18 5
18 0 19 5
18 0 20 5
18 0 21 5
18 0 22 5
18 0 23 5
18 0 24 5
18 0 25 5
18 0 26 5
18 0 27 5
18 0 28 5
18 0 29 5
18 0 30 5
18 0 31 5
19 0 0 5
19 0 1 5
19 0 2 5
19 0 3 5
19 0 4 5
19 0 5 5
19 0 6 5
19 0 7 5
19 0 8 5
19 0 9 5
19 0 10 5
19 0 11 5
19 0 12 5
19 0 13 5
19 0 14 5
19 0 15 5
19 0 16 5
19 0 17 5
19 0 18 5
19 0 19 5
19 0 20 5
19 0 21 5
19 0 22 5
19 0 23 5
19 0 24 5
19 0 25 5
19 0 26 5
19 0 27 5
19 0 28 5
19 0 29 5
19 0 30 5
19 0 31 5
20 0 0 5
20 0 1 5
20 0 2 5
20 0 3 5
20 0 4 5
20 0 5 5
20 0 6 5
20 0 7 5
20 0 8 5
20 0 9 5
20 0 10 5
20 0 11 5
20 0 12 5
20 0 13 5
20 0 14 5
20 0 15 5
20 0 16 5
20 0 17 5
20 0 18 5
20 0 19 5
20 0 20 5
20 0 21 5
20 0 22 5
20 0 23 5
20 0 24 5
20 0 25 5
20 0 26 5
20 0 27 5
20 0 28 5
20 0 29 5
20 0 30 5
20 0 31 5
21 0 0 5
21 0 1 5
21 0 2 5
21 0 3 5
21 0 4 5
21 0 5 5
21 0 6 5
21 0 7 5
21 0 8 5
21 0 9 5
21 0 10 5
21 0 11 5
21 0 12 5
21 0 13 5
21 0 14 5
21 0 15 5
21 0 16 5
21 0 17 5
21 0 18 5
21 0 19 5
21 0 20 5
21 0 21 5
21 0 22 5
21 0 23 5
21 0 24 5
21 0 25 5
21 0 26 5
21 0 27 5
21 0 28 5
21 0 29 5
21 0 30 5
21 0 31 5
22 0 0 5
22 0 1 5
22 0 2 5
22 0 3 5
22 0 4 5
22 0 5 5
22 0 6 5
22 0 7 5
22 0 8 5
22 0 9 5
22 0 10 5
22 0 11 5
22 0 12 5
22 0 13 5
22 0 14 5
22 0 15 5
22 0 16 5
22 0 17 5
22 0 18 5
22 0 19 5
22 0 20 5
22 0 21 5
22 0 22 5
22 0 23 5
22 0 24 5
22 0 25 5
22 0 26 5
22 0 27 5
22 0 28 5
22 0 29 5
22 0 30 5
22 0 31 5
23 0 0 5
23 0 1 5
23 0 2 5
23 0 3 5
23 0 4 5
23 0 5 5
23 0 6 5
23 0 7 5
23 0 8 5
23 0 9 5
23 0 10 5
23 0 11 5
23 0 12 5
23 0 13 5
23 0 14 5
23 0 15 5
23 0 16 5
23 0 17 5
23 0 18 5
23 0 19 5
23 0 20 5
23 0 21 5
23 0 22 5
23 0 23 5
23 0 24 5
23 0 25 5
23 0 26 5
23 0 27 5
23 0 28 5
23 0 29 5
23 0 30 5
23 0 31 5
24 0 0 5
24 0 1 5
24 0 2 5
24 0 3 5
24 0 4 5
24 0 5 5
24 0 6 5
24 0 7 5
24 0 8 5
24 0 9 5
24 0 10 5
24 0 11 5
24 0 12 5
24 0 13 5
24 0 14 5
24 0 15 5
24 0 16 5
24 0 17 5
24 0 18 5
24 0 19 5
24 0 20 5
24 0 21 5
24 0 22 5
24 0 23 5
24 0 24 5
24 0 25 5
24 0 26 5
24 0 27 5
24 0 28 5
24 0 29 5
24 0 30 5
24 0 31 5
25 0 0 5
25 0 1 5
25 0 2 5
25 0 3 5
25 0 4 5
25 0 5 5
25 0 6 5
25 0 7 5
25 0 8 5
25 0 9 5
25 0 10 5
25 0 11 5
25 0 12 5
25 0 13 5
25 0 14 5
25 0 15 5
25 0 16 5
25 0 17 5
25 0 18 5
25 0 19 5
25 0 20 5
25 0 21 5
25 0 22 5
25 0 23 5
25 0 24 5
25 0 25 5
25 0 26 5
25 0 27 5
25 0 28 5
25 0 29 5
25 0 30 5
25 0 31 5
26 0 0 5
26 0 1 5
26 0 2 5
26 0 3 5
26 0 4 5
26 0 5 5
26 0 6 5
26 0 7 5
26 0 8 5
26 0 9 5
26 0 10 5
26 0 11 5
26 0 12 5
26 0 13 5
26 0 14 5
26 0 15 5
26 0 16 5
26 0 17 5
26 0 18 5
26 0 19 5
26 0 20 5
26 0 21 5
26 0 22 5
26 0 23 5
26 0 24 5
26 0 25 5
26 0 26 5
26 0 27 5
26 0 28 5
26 0 29 5
26 0 30 5
26 0 31 5
27 0 0 5
27 0 1 5
27 0 2 5
27 0 3 5
27 0 4 5
27 0 5 5
27 0 6 5
27 0 7 5
27 0 8 5
27 0 9 5
27 0 10 5
27 0 11 5
27 0 12 5
27 0 13 5
27 0 14 5
27 0 15 5
27 0 16 5
27 0 17 5
27 0 18 5
27 0 19 5
27 0 20 5
27 0 21 5
27 0 22 5
27 0 23 5
27 0 24 5
27 0 25 5
27 0 26 5
27 0 27 5
27 0 28 5
27 0 29 5
27 0 30 5
27 0 31 5
28 0 0 5
28 0 1 5
28 0 2 5
28 0 3 5
28 0 4 5
28 0 5 5
28 0 6 5
28 0 7 5
28 0 8 5
28 0 9 5
28 0 10 5
28 0 11 5
28 0 12 5
28 0 13 5
28 0 14 5
28 0 15 5
28 0 16 5
28 0 17 5
28 0 18 5
28 0 19 5
28 0 20 5
28 0 21 5
28 0 22 5
28 0 23 5
28 0 24 5
28 0 25 5
28 0 26 5
28 0 27 5
28 0 28 5
28 0 29 5
28 0 30 5
28 0 31 5
29 0 0 5
29 0 1 5
29 0 2 5
29 0 3 5
29 0 4 5
29 0 5 5
29 0 6 5
29 0 7 5
29 0 8 5
29 0 9 5
29 0 10 5
29 0 11 5
29 0 12 5
29 0 13 5
29 0 14 5
29 0 15 5
29 0 16 5
29 0 17 5
29 0 18 5
29 0 19 5
29 0 20 5
29 0 21 5
29 0 22 5
29 0 23 5
29 0 24 5
29 0 25 5
29 0 26 5
29 0 27 5
29 0 28 5
29 0 29 5
29 0 30 5
29 0 31 5
30 0 0 5
30 0 1 5
30 0 2 5
30 0 3 5
30 0 4 5
30 0 5 5
30 0 6 5
30 0 7 5
30 0 8 5
30 0 9 5
30 0 10 5
30 0 11 5
30 0 12 5
30 0 13 5
30 0 14 5
30 0 15 5
30 0 16 5
30 0 17 5
30 0 18 5
30 0 19 5
30 0 20 5
30 0 21 5
30 0 22 5
30 0 23 5
30 0 24 5
30 0 25 5
30 0 26 5
30 0 27 5
30 0 28 5
30 0 29 5
30 0 30 5
30 0 31 5
31 0 0 5
31 0 1 5
31 0 2 5
31 0 3 5
31 0 4 5
31 0 5 5
31 0 6 5
31 0 7 5
31 0 8 5
31 0 9 5
31 0 10 5
31 0 11 5
31 0 12 5
31 0 13 5
31 0 14 5
31 0 15 5
31 0 16 5
31 0 17 5
31 0 18 5
31 0 19 5
31 0 20 5
31 0 21 5
31 0 22 5
31 0 23 5
31 0 24 5
31 0 25 5
31 0 26 5
31 0 27 5
31 0 28 5
31 0 29 5
31 0 30 5
31 0 31 5
28 1 3.999999 4
28 1 4.999997 4
28 1 5.999996 4
27 1 5.999996 4
26 1 5.999996 4
25 1 5.999996 4
25 1 5 4
25 1 4 4
25 1 6.999997 4
25 1 7.999997 4
26 1 8 4
27 1 8 4
28 1 8 4
23 1 4 4
23 1 4.999998 4
23 1 5.999998 4
22 1 5.999998 4
21 1 5.999998 4
20 1 5.999999 4
20 1 5 4
20 1 4 4
20 1 7 4
20 1 8 4
18 1 4 4
18 1 4.999999 4
18 1 5.999998 4
18 1 7.000001 4
18 1 8.000001 4
15 1 4 4
15 1 5 4
15 1 5.999999 4
15 1 6.999999 4
15 1 7.999999 4
17 1 7 4
16 1 5.999999 4
16 1 5 4
25 1 10 1
25 1 11 1
25 1 12 1
25 1 13 1
25 1 14 1
24 1 10 1
23 1 10 1
22 1 9.999999 1
24 1 14 1
23 1 14 1
22 1 14 1
22 1 11 1
22 1 13 1
20 1 11 2
19 1 11 2
18 1 11 2
17 1 11 2
16 1 11 2
20 1 13 2
19 1 13 2
18 1 13 2
17 1 13 2
16 1 13 2
17 1 14 2
19 1 14 2
17 1 12 2
19 1 12 2
17 1 10 2
19 1 9.999999 2
